others_Lab5/lab5_fresh/.Xil/Vivado-17604-ALIENWARE/hw_ila_data_1/zip_work/waveform.vcd
$date
        2022-Nov-14 03:34:05
$end
$version
        Vivado v2019.1 (64-bit)
$end
$timescale
        1ps
$end
$scope module dut $end
$var reg 4 " design_1_i/lab5_0/U0/Inst_SPI/data_wr [3:0] $end
$var reg 2 & u_ila_0_data_wr [7:6] $end
$var reg 1 ( design_1_i/lab5_0/U0/Inst_SPI/busy $end
$var reg 1 ) design_1_i/lab5_0/U0/Inst_SPI/ena $end
$var reg 1 * MOSI_o_OBUF $end
$var reg 1 + design_1_i/lab5_0/U0/r_reg0 $end
$var reg 1 , SCK_o_OBUF $end
$var reg 1 - SSN_o_OBUF $end
$var reg 1 . _TRIGGER $end
$var reg 1 / _WINDOW $end
$var reg 1 0 _GAP $end
$upscope $end
$enddefinitions $end
#0
$dumpvars
b0 "
b0 &
1(
0)
0*
0+
0,
0-
0.
1/
00
$end
#85
1,
#185
0,
#285
1,
#385
0,
#485
1,
#585
0,
#685
1,
#785
0,
#885
1,
#985
0,
#1085
0(
1*
1-
#1088
b1001 "
b1 &
#1089
1)
#1185
1(
0*
0-
#1186
0)
#1285
1,
#1385
0,
#1485
1,
#1585
1*
0,
#1685
1,
#1785
0,
#1885
1,
#1985
0,
#2085
1,
#2185
0,
#2285
1,
#2385
0*
0,
#2485
1,
#2585
0,
#2685
1,
#2785
0,
#2885
0(
1*
1-
#2888
b0 "
b0 &
#2889
1)
#2985
1(
0*
0-
#2986
0)
#3085
1,
#3185
0,
#3285
1,
#3385
0,
#3485
1,
#3585
0,
#3685
1,
#3785
0,
#3885
1,
#3985
0,
#4085
1,
#4185
0,
#4285
1,
#4385
0,
#4485
1,
#4585
0,
#4685
0(
1*
1-
#4689
1)
#4785
1(
0*
0-
#4786
0)
#4885
1,
#4985
0,
#5085
1,
#5185
0,
#5285
1,
#5385
0,
#5485
1,
#5585
0,
#5685
1,
#5785
0,
#5885
1,
#5985
0,
#6085
1,
#6185
0,
#6285
1,
#6385
0,
#6485
0(
1*
1-
#6489
1)
#6585
1(
0*
0-
#6586
0)
#6685
1,
#6785
0,
#6885
1,
#6985
0,
#7085
1,
#7185
0,
#7285
1,
#7385
0,
#7485
1,
#7585
0,
#7685
1,
#7785
0,
#7885
1,
#7985
0,
#8085
1,
#8185
0,
#8285
0(
1*
1-
#8289
1)
#8385
1(
0*
0-
#8386
0)
#8485
1,
#8585
0,
#8685
1,
#8785
0,
#8885
1,
#8985
0,
#9085
1,
#9185
0,
#9285
1,
#9385
0,
#9485
1,
#9585
0,
#9685
1,
#9785
0,
#9885
1,
#9985
0,
#10085
0(
1*
1-
#10089
1)
#10185
1(
0*
0-
#10186
0)
#10285
1,
#10385
0,
#10485
1,
#10585
0,
#10685
1,
#10785
0,
#10885
1,
#10985
0,
#11085
1,
#11185
0,
#11285
1,
#11385
0,
#11485
1,
#11585
0,
#11685
1,
#11785
0,
#11885
0(
1*
1-
#11888
b1001 "
b1 &
#11889
1)
#11985
1(
0*
0-
#11986
0)
#12085
1,
#12185
0,
#12285
1,
#12385
1*
0,
#12485
1,
#12585
0,
#12685
1,
#12785
0,
#12885
1,
#12985
0,
#13085
1,
#13185
0*
0,
#13285
1,
#13385
0,
#13485
1,
#13585
0,
#13685
0(
1*
1-
#13688
b0 "
b0 &
#13689
1)
#13785
1(
0*
0-
#13786
0)
#13885
1,
#13985
0,
#14085
1,
#14185
0,
#14285
1,
#14385
0,
#14485
1,
#14585
0,
#14685
1,
#14785
0,
#14885
1,
#14985
0,
#15085
1,
#15185
0,
#15285
1,
#15385
0,
#15485
0(
1*
1-
#15489
1)
#15585
1(
0*
0-
#15586
0)
#15685
1,
#15785
0,
#15885
1,
#15985
0,
#16085
1,
#16185
0,
#16285
1,
#16385
0,
#16485
1,
#16585
0,
#16685
1,
#16785
0,
#16885
1,
#16985
0,
#17085
1,
#17185
0,
#17285
0(
1*
1-
#17289
1)
#17385
1(
0*
0-
#17386
0)
#17485
1,
#17585
0,
#17685
1,
#17785
0,
#17885
1,
#17985
0,
#18085
1,
#18185
0,
#18285
1,
#18385
0,
#18485
1,
#18585
0,
#18685
1,
#18785
0,
#18885
1,
#18985
0,
#19085
0(
1*
1-
#19089
1)
#19185
1(
0*
0-
#19186
0)
#19285
1,
#19385
0,
#19485
1,
#19585
0,
#19685
1,
#19785
0,
#19885
1,
#19985
0,
#20085
1,
#20185
0,
#20285
1,
#20385
0,
#20485
1,
#20585
0,
#20685
1,
#20785
0,
#20885
0(
1*
1-
#20889
1)
#20985
1(
0*
0-
#20986
0)
#21085
1,
#21185
0,
#21285
1,
#21385
0,
#21485
1,
#21585
0,
#21685
1,
#21785
0,
#21885
1,
#21985
0,
#22085
1,
#22185
0,
#22285
1,
#22385
0,
#22485
1,
#22585
0,
#22685
0(
1*
1-
#22688
b1001 "
b1 &
#22689
1)
#22785
1(
0*
0-
#22786
0)
#22885
1,
#22985
0,
#23085
1,
#23185
1*
0,
#23285
1,
#23385
0,
#23485
1,
#23585
0,
#23685
1,
#23785
0,
#23885
1,
#23985
0*
0,
#24085
1,
#24185
0,
#24285
1,
#24385
0,
#24485
0(
1*
1-
#24488
b0 "
b0 &
#24489
1)
#24585
1(
0*
0-
#24586
0)
#24685
1,
#24785
0,
#24885
1,
#24985
0,
#25085
1,
#25185
0,
#25285
1,
#25385
0,
#25485
1,
#25585
0,
#25685
1,
#25785
0,
#25885
1,
#25985
0,
#26085
1,
#26185
0,
#26285
0(
1*
1-
#26289
1)
#26385
1(
0*
0-
#26386
0)
#26485
1,
#26585
0,
#26685
1,
#26785
0,
#26885
1,
#26985
0,
#27085
1,
#27185
0,
#27285
1,
#27385
0,
#27485
1,
#27585
0,
#27685
1,
#27785
0,
#27885
1,
#27985
0,
#28085
0(
1*
1-
#28089
1)
#28185
1(
0*
0-
#28186
0)
#28285
1,
#28385
0,
#28485
1,
#28585
0,
#28685
1,
#28785
0,
#28885
1,
#28985
0,
#29085
1,
#29185
0,
#29285
1,
#29385
0,
#29485
1,
#29585
0,
#29685
1,
#29785
0,
#29885
0(
1*
1-
#29889
1)
#29985
1(
0*
0-
#29986
0)
#30085
1,
#30185
0,
#30285
1,
#30385
0,
#30485
1,
#30585
0,
#30685
1,
#30785
0,
#30885
1,
#30985
0,
#31085
1,
#31185
0,
#31285
1,
#31385
0,
#31485
1,
#31585
0,
#31685
0(
1*
1-
#31689
1)
#31785
1(
0*
0-
#31786
0)
#31885
1,
#31985
0,
#32085
1,
#32185
0,
#32285
1,
#32385
0,
#32485
1,
#32585
0,
#32685
1,
#32768
1+
1.
#32769
0+
#32785
0,
#32885
1,
#32985
0,
#33085
1,
#33185
0,
#33285
1,
#33385
0,
#33485
0(
1*
1-
#33488
b1001 "
b1 &
#33489
1)
#33585
1(
0*
0-
#33586
0)
#33685
1,
#33785
0,
#33885
1,
#33985
1*
0,
#34085
1,
#34185
0,
#34285
1,
#34385
0,
#34485
1,
#34585
0,
#34685
1,
#34785
0*
0,
#34885
1,
#34985
0,
#35085
1,
#35185
0,
#35285
0(
1*
1-
#35288
b0 "
b0 &
#35289
1)
#35385
1(
0*
0-
#35386
0)
#35485
1,
#35585
0,
#35685
1,
#35785
0,
#35885
1,
#35985
0,
#36085
1,
#36185
0,
#36285
1,
#36385
0,
#36485
1,
#36585
0,
#36685
1,
#36785
0,
#36885
1,
#36985
0,
#37085
0(
1*
1-
#37088
b1111 "
#37089
1)
#37185
1(
0*
0-
#37186
0)
#37285
1,
#37385
0,
#37485
1,
#37585
0,
#37685
1,
#37785
0,
#37885
1,
#37985
0,
#38085
1,
#38185
1*
0,
#38285
1,
#38385
0,
#38485
1,
#38585
0,
#38685
1,
#38785
0,
#38885
0(
1-
#38888
b1010 "
#38889
1)
#38985
1(
0*
0-
#38986
0)
#39085
1,
#39185
0,
#39285
1,
#39385
0,
#39485
1,
#39585
0,
#39685
1,
#39785
0,
#39885
1,
#39985
1*
0,
#40085
1,
#40185
0*
0,
#40285
1,
#40385
1*
0,
#40485
1,
#40585
0,
#40685
0(
1-
#40688
b1101 "
#40689
1)
#40785
1(
0*
0-
#40786
0)
#40885
1,
#40985
0,
#41085
1,
#41185
0,
#41285
1,
#41385
0,
#41485
1,
#41585
0,
#41685
1,
#41785
1*
0,
#41885
1,
#41985
0,
#42085
1,
#42185
0*
0,
#42285
1,
#42385
0,
#42485
0(
1*
1-
#42488
b1110 "
#42489
1)
#42585
1(
0*
0-
#42586
0)
#42685
1,
#42785
0,
#42885
1,
#42985
0,
#43085
1,
#43185
0,
#43285
1,
#43385
0,
#43485
1,
#43585
1*
0,
#43685
1,
#43785
0,
#43885
1,
#43985
0,
#44085
1,
#44185
0,
#44285
0(
1-
#44288
b1001 "
b1 &
#44289
1)
#44385
1(
0*
0-
#44386
0)
#44485
1,
#44585
0,
#44685
1,
#44785
1*
0,
#44885
1,
#44985
0,
#45085
1,
#45185
0,
#45285
1,
#45385
0,
#45485
1,
#45585
0*
0,
#45685
1,
#45785
0,
#45885
1,
#45985
0,
#46085
0(
1*
1-
#46088
b0 "
b0 &
#46089
1)
#46185
1(
0*
0-
#46186
0)
#46285
1,
#46385
0,
#46485
1,
#46585
0,
#46685
1,
#46785
0,
#46885
1,
#46985
0,
#47085
1,
#47185
0,
#47285
1,
#47385
0,
#47485
1,
#47585
0,
#47685
1,
#47785
0,
#47885
0(
1*
1-
#47888
b1111 "
#47889
1)
#47985
1(
0*
0-
#47986
0)
#48085
1,
#48185
0,
#48285
1,
#48385
0,
#48485
1,
#48585
0,
#48685
1,
#48785
0,
#48885
1,
#48985
1*
0,
#49085
1,
#49185
0,
#49285
1,
#49385
0,
#49485
1,
#49585
0,
#49685
0(
1-
#49688
b1010 "
#49689
1)
#49785
1(
0*
0-
#49786
0)
#49885
1,
#49985
0,
#50085
1,
#50185
0,
#50285
1,
#50385
0,
#50485
1,
#50585
0,
#50685
1,
#50785
1*
0,
#50885
1,
#50985
0*
0,
#51085
1,
#51185
1*
0,
#51285
1,
#51385
0,
#51485
0(
1-
#51488
b1101 "
#51489
1)
#51585
1(
0*
0-
#51586
0)
#51685
1,
#51785
0,
#51885
1,
#51985
0,
#52085
1,
#52185
0,
#52285
1,
#52385
0,
#52485
1,
#52585
1*
0,
#52685
1,
#52785
0,
#52885
1,
#52985
0*
0,
#53085
1,
#53185
0,
#53285
0(
1*
1-
#53288
b1110 "
#53289
1)
#53385
1(
0*
0-
#53386
0)
#53485
1,
#53585
0,
#53685
1,
#53785
0,
#53885
1,
#53985
0,
#54085
1,
#54185
0,
#54285
1,
#54385
1*
0,
#54485
1,
#54585
0,
#54685
1,
#54785
0,
#54885
1,
#54985
0,
#55085
0(
1-
#55088
b1001 "
b1 &
#55089
1)
#55185
1(
0*
0-
#55186
0)
#55285
1,
#55385
0,
#55485
1,
#55585
1*
0,
#55685
1,
#55785
0,
#55885
1,
#55985
0,
#56085
1,
#56185
0,
#56285
1,
#56385
0*
0,
#56485
1,
#56585
0,
#56685
1,
#56785
0,
#56885
0(
1*
1-
#56888
b0 "
b0 &
#56889
1)
#56985
1(
0*
0-
#56986
0)
#57085
1,
#57185
0,
#57285
1,
#57385
0,
#57485
1,
#57585
0,
#57685
1,
#57785
0,
#57885
1,
#57985
0,
#58085
1,
#58185
0,
#58285
1,
#58385
0,
#58485
1,
#58585
0,
#58685
0(
1*
1-
#58688
b1111 "
#58689
1)
#58785
1(
0*
0-
#58786
0)
#58885
1,
#58985
0,
#59085
1,
#59185
0,
#59285
1,
#59385
0,
#59485
1,
#59585
0,
#59685
1,
#59785
1*
0,
#59885
1,
#59985
0,
#60085
1,
#60185
0,
#60285
1,
#60385
0,
#60485
0(
1-
#60488
b1010 "
#60489
1)
#60585
1(
0*
0-
#60586
0)
#60685
1,
#60785
0,
#60885
1,
#60985
0,
#61085
1,
#61185
0,
#61285
1,
#61385
0,
#61485
1,
#61585
1*
0,
#61685
1,
#61785
0*
0,
#61885
1,
#61985
1*
0,
#62085
1,
#62185
0,
#62285
0(
1-
#62288
b1101 "
#62289
1)
#62385
1(
0*
0-
#62386
0)
#62485
1,
#62585
0,
#62685
1,
#62785
0,
#62885
1,
#62985
0,
#63085
1,
#63185
0,
#63285
1,
#63385
1*
0,
#63485
1,
#63585
0,
#63685
1,
#63785
0*
0,
#63885
1,
#63985
0,
#64085
0(
1*
1-
#64088
b1110 "
#64089
1)
#64185
1(
0*
0-
#64186
0)
#64285
1,
#64385
0,
#64485
1,
#64585
0,
#64685
1,
#64785
0,
#64885
1,
#64985
0,
#65085
1,
#65185
1*
0,
#65285
1,
#65385
0,
#65485
1,
